Element,10 - Surveying - Ground,16 - Surveying - Plant Processes,22 - Building Construction / Commercial & Residential,24 - Engineering & Infrastructure,26 - Interior Finishing & Inspection,30 - Monitoring & Control (Natural and Manmade),50 - Mapping,55 - Asset Collection & Management,60 - Agriculture,70 - Mining
Accident Scene Investigation/Reconstruction,TRUE,,,,,,,,,
Aerial Mapping & LIDAR,,,,,,,TRUE,,,
Archaeological/Heritage Analysis & Preservation,TRUE,,,,,,,,,
Asset Collection & Fleet Management,,,,,,,,TRUE,,
Automated Production Recording,,,,,,,,,,TRUE
Construction within BIM Process,,,,TRUE,,,,,,
Construction within BIM/CIM Process,,,TRUE,,,,,,,
Crime Scene Investigation/Reconstruction,TRUE,,,,,,,,,
Crop Harvesting/Extraction,,,,,,,,,TRUE,
Crop Preparation/Seeding,,,,,,,,,TRUE,
Crop Protection/Nutrient Management,,,,,,,,,TRUE,
Data Capture for Terrain Modelling,TRUE,,,,,,,,,
Deformation Monitoring,,,,,,TRUE,,,,
Design & Data Preparation,,,TRUE,,,,,,,
Design & Measurements for BIM,,TRUE,,,,,,,,
Drainage & Utilities Construction,,,,TRUE,,,,,,
Engineering Surveying (Highway/Rail/Dams),,,TRUE,,,,,,,
Estate & Small Access Road Construction,,,,TRUE,,,,,,
Exterior or Footprint Layout,,,,TRUE,,,,,,
Facilities & Maintenance Management,,TRUE,,,,,,,,
Fire & Explosion Investigation/Reconstruction,TRUE,,,,,,,,,
Fleet Supply into Construction,,,,,TRUE,,,,,
Geodetic & Control,TRUE,,,,,,,,,
GIS Planning & Data Collection,,,,,,,,TRUE,,
GNSS Networks Establishment,,,,,,TRUE,,,,
Ground Level Mapping,,,,,,,,,TRUE,
Haulage Road Development & Maintenance,,,,,,,,,,TRUE
Hydrography/Marine Applications,TRUE,,,,,,,,,
Interior Construction & Improvements,,,,,TRUE,,,,,
Interior Inspection & Appraisals,,,,,TRUE,,,,,
Interior Layout,,,,TRUE,,,,,,
Land/Stakeout/Cadastral,TRUE,,,,,,,,,
Large Scale Mapping,,,,,,,TRUE,,,
"Level, Grade & Vertical Alignments",,,,TRUE,,,,,,
Material Grading & DTM Control,,,TRUE,,,,,,,
Military Surveying,TRUE,,,,,,,,,
Mining Surveying & Stakeout,,,,,,,,,,TRUE
Other Specialised GIS Applications,,,,,,,TRUE,,,
PAV - 2D Asphalt/CBM Paving,,,TRUE,,,,,,,
PAV - 3D Asphalt Milling,,,TRUE,,,,,,,
PAV - 3D Asphalt/CBM Paving,,,TRUE,,,,,,,
PAV - 3D Concrete Paving,,,TRUE,,,,,,,
Pipeline Construction,,,TRUE,,,,,,,
Precision Surveying & Engineering,,TRUE,,,,,,,,
Project Management & Scheduling,,,TRUE,,,,,,,
"Project Management, Scheduling & Dispatch",,,,,,,,,,TRUE
Scientific Analysis,,,,,,TRUE,,,,
Seismic & Exploration,TRUE,,,,,,,,,
Site Positioning,,,TRUE,,,,,,,
Site/Ground Preparation & Excavation,,,,TRUE,,,,,,
Slope Stability Monitoring,,,,,,,,,,TRUE
Surveying within Metrology Industries,,TRUE,,,,,,,,
Trades within Construction (MEP/Etc.),,,,,TRUE,,,,,
Virtual Construction & Clash Detection,,TRUE,,,,,,,,
Water Management,,,,,,,,,TRUE,
