Element,select_dealer,select_customer_group,select_customer,select_heard_of,select_scan_question,select_purchase_time,select_purchase_question,select_purchase_question2,select_purchase_question3,select_purchase_question4,select_purchase_question5,select_contact_question,select_autodesk_question,select_bim_gc_question,select_bim_gc_question2,select_bim_gc_question3,select_bim_gc_question4,select_bim_hds_question,select_bim_mep_question,select_bim_mep_question2,select_bim_mep_question3,select_bim_mep_question4,select_hds_question,select_hds_question2,select_hds_question_cyclone1,select_hds_question_cyclone2,select_accuracy_needs,select_gnss_receiver,select_surv_ground_question,select_gis_question,select_gis_question2,select_units_req,select_topic,select_solution,select_solution2,select_jobfunction,select_interest,select_interest2,select_interest3,select_interest4
select_first_dropdown_option,TRUE,TRUE,TRUE,TRUE,TRUE,TRUE,TRUE,TRUE,TRUE,TRUE,TRUE,TRUE,TRUE,TRUE,TRUE,TRUE,TRUE,TRUE,TRUE,TRUE,TRUE,TRUE,TRUE,TRUE,FALSE,FALSE,TRUE,TRUE,TRUE,TRUE,TRUE,TRUE,TRUE,TRUE,TRUE,TRUE,TRUE,TRUE,FALSE,FALSE
select_customer_group1,,TRUE,,,,,,,,,,,,,,,,,,,,,,,,,,,,,,,,,,,,,,
select_customer_group2,,TRUE,,,,,,,,,,,,,,,,,,,,,,,,,,,,,,,,,,,,,,
select_customer_group3,,TRUE,,,,,,,,,,,,,,,,,,,,,,,,,,,,,,,,,,,,,,
select_customer_group4,,TRUE,,,,,,,,,,,,,,,,,,,,,,,,,,,,,,,,,,,,,,
select_customer_group5,,TRUE,,,,,,,,,,,,,,,,,,,,,,,,,,,,,,,,,,,,,,
select_customer1,,,TRUE,,,,,,,,,,,,,,,,,,,,,,,,,,,,,,,,,,,,,
select_customer2,,,TRUE,,,,,,,,,,,,,,,,,,,,,,,,,,,,,,,,,,,,,
select_heard_of1,,,,TRUE,,,,,,,,,,,,,,,,,,,,,,,,,,,,,,,,,,,,
select_heard_of2,,,,TRUE,,,,,,,,,,,,,,,,,,,,,,,,,,,,,,,,,,,,
select_heard_of3,,,,TRUE,,,,,,,,,,,,,,,,,,,,,,,,,,,,,,,,,,,,
select_heard_of4,,,,TRUE,,,,,,,,,,,,,,,,,,,,,,,,,,,,,,,,,,,,
select_heard_of5,,,,TRUE,,,,,,,,,,,,,,,,,,,,,,,,,,,,,,,,,,,,
select_heard_of6,,,,TRUE,,,,,,,,,,,,,,,,,,,,,,,,,,,,,,,,,,,,
select_heard_of7,,,,TRUE,,,,,,,,,,,,,,,,,,,,,,,,,,,,,,,,,,,,
select_heard_of8,,,,TRUE,,,,,,,,,,,,,,,,,,,,,,,,,,,,,,,,,,,,
select_heard_of9,,,,TRUE,,,,,,,,,,,,,,,,,,,,,,,,,,,,,,,,,,,,
select_heard_of10,,,,TRUE,,,,,,,,,,,,,,,,,,,,,,,,,,,,,,,,,,,,
select_heard_of11,,,,TRUE,,,,,,,,,,,,,,,,,,,,,,,,,,,,,,,,,,,,
select_heard_of12,,,,TRUE,,,,,,,,,,,,,,,,,,,,,,,,,,,,,,,,,,,,
select_heard_of13,,,,TRUE,,,,,,,,,,,,,,,,,,,,,,,,,,,,,,,,,,,,
select_heard_of14,,,,TRUE,,,,,,,,,,,,,,,,,,,,,,,,,,,,,,,,,,,,
select_heard_of15,,,,TRUE,,,,,,,,,,,,,,,,,,,,,,,,,,,,,,,,,,,,
select_heard_of16,,,,TRUE,,,,,,,,,,,,,,,,,,,,,,,,,,,,,,,,,,,,
select_heard_of17,,,,TRUE,,,,,,,,,,,,,,,,,,,,,,,,,,,,,,,,,,,,
select_heard_of18,,,,TRUE,,,,,,,,,,,,,,,,,,,,,,,,,,,,,,,,,,,,
select_heard_of19,,,,TRUE,,,,,,,,,,,,,,,,,,,,,,,,,,,,,,,,,,,,
select_scan_answer1,,,,,TRUE,,,,,,,,,,,,,,,,,,,,,,,,,,,,,,,,,,,
select_scan_answer2,,,,,TRUE,,,,,,,,,,,,,,,,,,,,,,,,,,,,,,,,,,,
select_scan_answer3,,,,,TRUE,,,,,,,,,,,,,,,,,,,,,,,,,,,,,,,,,,,
select_scan_answer4,,,,,TRUE,,,,,,,,,,,,,,,,,,,,,,,,,,,,,,,,,,,
select_scan_answer5,,,,,TRUE,,,,,,,,,,,,,,,,,,,,,,,,,,,,,,,,,,,
select_purchase_time1,,,,,,TRUE,,,,,,,,,,,,,,,,,,,,,,,,,,,,,,,,,,
select_purchase_time2,,,,,,TRUE,,,,,,,,,,,,,,,,,,,,,,,,,,,,,,,,,,
select_purchase_time3,,,,,,TRUE,,,,,,,,,,,,,,,,,,,,,,,,,,,,,,,,,,
select_purchase_time4,,,,,,TRUE,,,,,,,,,,,,,,,,,,,,,,,,,,,,,,,,,,
select_purchase_answer1,,,,,,,OVERRIDE,OVERRIDE,OVERRIDE,OVERRIDE,OVERRIDE,,,,,,,,,,,,,,,,,,,,,,,,,,,,,
select_purchase_answer2,,,,,,,TRUE,TRUE,TRUE,TRUE,TRUE,,,,,,,,,,,,,,,,,,,,,,,,,,,,,
select_contact_answer1,,,,,,,,,,,,OVERRIDE,,,,,,,,,,,,,,,,,,,,,,,,,,,,
select_contact_answer2,,,,,,,,,,,,OVERRIDE,,,,,,,,,,,,,,,,,,,,,,,,,,,,
select_contact_answer3,,,,,,,,,,,,TRUE,,,,,,,,,,,,,,,,,,,,,,,,,,,,
select_autodesk_answer1,,,,,,,,,,,,,TRUE,,,,,,,,,,,,,,,,,,,,,,,,,,,
select_autodesk_answer2,,,,,,,,,,,,,TRUE,,,,,,,,,,,,,,,,,,,,,,,,,,,
select_autodesk_answer3,,,,,,,,,,,,,TRUE,,,,,,,,,,,,,,,,,,,,,,,,,,,
select_bim_gc_q1_answer1,,,,,,,,,,,,,,TRUE,,,,,,,,,,,,,,,,,,,,,,,,,,
select_bim_gc_q1_answer2,,,,,,,,,,,,,,TRUE,,,,,,,,,,,,,,,,,,,,,,,,,,
select_bim_gc_q1_answer3,,,,,,,,,,,,,,TRUE,,,,,,,,,,,,,,,,,,,,,,,,,,
select_bim_gc_q1_answer4,,,,,,,,,,,,,,TRUE,,,,,,,,,,,,,,,,,,,,,,,,,,
select_bim_gc_q1_answer5,,,,,,,,,,,,,,TRUE,,,,,,,,,,,,,,,,,,,,,,,,,,
select_bim_gc_q2_answer1,,,,,,,,,,,,,,,TRUE,,,,,,,,,,,,,,,,,,,,,,,,,
select_bim_gc_q2_answer2,,,,,,,,,,,,,,,TRUE,,,,,,,,,,,,,,,,,,,,,,,,,
select_bim_gc_q2_answer3,,,,,,,,,,,,,,,TRUE,,,,,,,,,,,,,,,,,,,,,,,,,
select_bim_gc_q2_answer4,,,,,,,,,,,,,,,TRUE,,,,,,,,,,,,,,,,,,,,,,,,,
select_bim_gc_q2_answer5,,,,,,,,,,,,,,,TRUE,,,,,,,,,,,,,,,,,,,,,,,,,
select_bim_gc_q3_answer1,,,,,,,,,,,,,,,,OVERRIDE,,,,,,,,,,,,,,,,,,,,,,,,
select_bim_gc_q3_answer2,,,,,,,,,,,,,,,,TRUE,,,,,,,,,,,,,,,,,,,,,,,,
select_bim_gc_q3_answer3,,,,,,,,,,,,,,,,TRUE,,,,,,,,,,,,,,,,,,,,,,,,
select_bim_gc_q4_answer1,,,,,,,,,,,,,,,,,OVERRIDE,,,,,,,,,,,,,,,,,,,,,,,
select_bim_gc_q4_answer2,,,,,,,,,,,,,,,,,OVERRIDE,,,,,,,,,,,,,,,,,,,,,,,
select_bim_gc_q4_answer3,,,,,,,,,,,,,,,,,OVERRIDE,,,,,,,,,,,,,,,,,,,,,,,
select_bim_gc_q4_answer4,,,,,,,,,,,,,,,,,TRUE,,,,,,,,,,,,,,,,,,,,,,,
select_bim_hds_q1_answer1,,,,,,,,,,,,,,,,,,TRUE,,,,,,,,,,,,,,,,,,,,,,
select_bim_hds_q1_answer2,,,,,,,,,,,,,,,,,,TRUE,,,,,,,,,,,,,,,,,,,,,,
select_bim_hds_q1_answer3,,,,,,,,,,,,,,,,,,TRUE,,,,,,,,,,,,,,,,,,,,,,
select_bim_hds_q1_answer4,,,,,,,,,,,,,,,,,,TRUE,,,,,,,,,,,,,,,,,,,,,,
select_bim_mep_q1_answer1,,,,,,,,,,,,,,,,,,,TRUE,,,,,,,,,,,,,,,,,,,,,
select_bim_mep_q1_answer2,,,,,,,,,,,,,,,,,,,TRUE,,,,,,,,,,,,,,,,,,,,,
select_bim_mep_q1_answer3,,,,,,,,,,,,,,,,,,,TRUE,,,,,,,,,,,,,,,,,,,,,
select_bim_mep_q1_answer4,,,,,,,,,,,,,,,,,,,TRUE,,,,,,,,,,,,,,,,,,,,,
select_bim_mep_q2_answer1,,,,,,,,,,,,,,,,,,,,TRUE,,,,,,,,,,,,,,,,,,,,
select_bim_mep_q2_answer2,,,,,,,,,,,,,,,,,,,,TRUE,,,,,,,,,,,,,,,,,,,,
select_bim_mep_q2_answer3,,,,,,,,,,,,,,,,,,,,TRUE,,,,,,,,,,,,,,,,,,,,
select_bim_mep_q2_answer4,,,,,,,,,,,,,,,,,,,,TRUE,,,,,,,,,,,,,,,,,,,,
select_bim_mep_q2_answer5,,,,,,,,,,,,,,,,,,,,TRUE,,,,,,,,,,,,,,,,,,,,
select_bim_mep_q2_answer6,,,,,,,,,,,,,,,,,,,,TRUE,,,,,,,,,,,,,,,,,,,,
select_bim_mep_q3_answer1,,,,,,,,,,,,,,,,,,,,,INCLUSIVE,,,,,,,,,,,,,,,,,,,
select_bim_mep_q3_answer2,,,,,,,,,,,,,,,,,,,,,TRUE,,,,,,,,,,,,,,,,,,,
select_bim_mep_q3_answer3,,,,,,,,,,,,,,,,,,,,,INCLUSIVE,,,,,,,,,,,,,,,,,,,
select_bim_mep_q4_answer1,,,,,,,,,,,,,,,,,,,,,,INCLUSIVE,,,,,,,,,,,,,,,,,,
select_bim_mep_q4_answer2,,,,,,,,,,,,,,,,,,,,,,INCLUSIVE,,,,,,,,,,,,,,,,,,
select_bim_mep_q4_answer3,,,,,,,,,,,,,,,,,,,,,,TRUE,,,,,,,,,,,,,,,,,,
select_hds_q1_answer1,,,,,,,,,,,,,,,,,,,,,,,INCLUSIVE,,,,,,,,,,,,,,,,,
select_hds_q1_answer2,,,,,,,,,,,,,,,,,,,,,,,TRUE,,,,,,,,,,,,,,,,,
select_hds_q2_answer1,,,,,,,,,,,,,,,,,,,,,,,,INCLUSIVE,,,,,,,,,,,,,,,,
select_hds_q2_answer2,,,,,,,,,,,,,,,,,,,,,,,,TRUE,,,,,,,,,,,,,,,,
select_hds_cyclone_answer1,,,,,,,,,,,,,,,,,,,,,,,,,TRUE,,,,,,,,,,,,,,,
select_hds_cyclone_answer2,,,,,,,,,,,,,,,,,,,,,,,,,TRUE,,,,,,,,,,,,,,,
select_hds_cyclone_answer3,,,,,,,,,,,,,,,,,,,,,,,,,TRUE,,,,,,,,,,,,,,,
select_hds_cyclone_answer4,,,,,,,,,,,,,,,,,,,,,,,,,TRUE,,,,,,,,,,,,,,,
select_hds_cyclone_answer5,,,,,,,,,,,,,,,,,,,,,,,,,TRUE,,,,,,,,,,,,,,,
select_hds_cyclone_answer6,,,,,,,,,,,,,,,,,,,,,,,,,TRUE,,,,,,,,,,,,,,,
select_hds_cyclone_answer7,,,,,,,,,,,,,,,,,,,,,,,,,,TRUE,,,,,,,,,,,,,,
select_hds_cyclone_answer8,,,,,,,,,,,,,,,,,,,,,,,,,,TRUE,,,,,,,,,,,,,,
select_hds_cyclone_answer9,,,,,,,,,,,,,,,,,,,,,,,,,,TRUE,,,,,,,,,,,,,,
select_hds_cyclone_answer10,,,,,,,,,,,,,,,,,,,,,,,,,,TRUE,,,,,,,,,,,,,,
select_hds_cyclone_answer11,,,,,,,,,,,,,,,,,,,,,,,,,,TRUE,,,,,,,,,,,,,,
select_hds_cyclone_answer12,,,,,,,,,,,,,,,,,,,,,,,,,,TRUE,,,,,,,,,,,,,,
select_hds_cyclone_answer13,,,,,,,,,,,,,,,,,,,,,,,,,,TRUE,,,,,,,,,,,,,,
select_surv_ground_q1_answer1,,,,,,,,,,,,,,,,,,,,,,,,,,,,,TRUE,,,,,,,,,,,
select_surv_ground_q1_answer2,,,,,,,,,,,,,,,,,,,,,,,,,,,,,TRUE,,,,,,,,,,,
select_surv_ground_q1_answer3,,,,,,,,,,,,,,,,,,,,,,,,,,,,,TRUE,,,,,,,,,,,
select_surv_ground_q1_answer4,,,,,,,,,,,,,,,,,,,,,,,,,,,,,TRUE,,,,,,,,,,,
select_surv_ground_q1_answer5,,,,,,,,,,,,,,,,,,,,,,,,,,,,,TRUE,,,,,,,,,,,
select_surv_ground_q1_answer6,,,,,,,,,,,,,,,,,,,,,,,,,,,,,TRUE,,,,,,,,,,,
select_gis_q1_answer1,,,,,,,,,,,,,,,,,,,,,,,,,,,,,,TRUE,,,,,,,,,,
select_gis_q1_answer2,,,,,,,,,,,,,,,,,,,,,,,,,,,,,,TRUE,,,,,,,,,,
select_gis_q1_answer3,,,,,,,,,,,,,,,,,,,,,,,,,,,,,,TRUE,,,,,,,,,,
select_gis_q1_answer4,,,,,,,,,,,,,,,,,,,,,,,,,,,,,,TRUE,,,,,,,,,,
select_gis_q1_answer5,,,,,,,,,,,,,,,,,,,,,,,,,,,,,,TRUE,,,,,,,,,,
select_gis_q1_answer1,,,,,,,,,,,,,,,,,,,,,,,,,,,,,,,TRUE,,,,,,,,,
select_gis_q2_answer2,,,,,,,,,,,,,,,,,,,,,,,,,,,,,,,TRUE,,,,,,,,,
select_gis_q2_answer3,,,,,,,,,,,,,,,,,,,,,,,,,,,,,,,TRUE,,,,,,,,,
select_gis_q2_answer4,,,,,,,,,,,,,,,,,,,,,,,,,,,,,,,TRUE,,,,,,,,,
select_units_req1,,,,,,,,,,,,,,,,,,,,,,,,,,,,,,,,TRUE,,,,,,,,
select_units_req2,,,,,,,,,,,,,,,,,,,,,,,,,,,,,,,,TRUE,,,,,,,,
select_units_req3,,,,,,,,,,,,,,,,,,,,,,,,,,,,,,,,TRUE,,,,,,,,
select_topic1,,,,,,,,,,,,,,,,,,,,,,,,,,,,,,,,,TRUE,,,,,,,
select_topic2,,,,,,,,,,,,,,,,,,,,,,,,,,,,,,,,,TRUE,,,,,,,
select_topic3,,,,,,,,,,,,,,,,,,,,,,,,,,,,,,,,,TRUE,,,,,,,
select_topic4,,,,,,,,,,,,,,,,,,,,,,,,,,,,,,,,,TRUE,,,,,,,
select_topic5,,,,,,,,,,,,,,,,,,,,,,,,,,,,,,,,,TRUE,,,,,,,
select_topic6,,,,,,,,,,,,,,,,,,,,,,,,,,,,,,,,,TRUE,,,,,,,
select_solution1,,,,,,,,,,,,,,,,,,,,,,,,,,,,,,,,,,TRUE,,,,,,
select_solution2,,,,,,,,,,,,,,,,,,,,,,,,,,,,,,,,,,TRUE,,,,,,
select_solution3,,,,,,,,,,,,,,,,,,,,,,,,,,,,,,,,,,TRUE,,,,,,
select_solution4,,,,,,,,,,,,,,,,,,,,,,,,,,,,,,,,,,TRUE,,,,,,
select_solution5,,,,,,,,,,,,,,,,,,,,,,,,,,,,,,,,,,TRUE,,,,,,
select_solution6,,,,,,,,,,,,,,,,,,,,,,,,,,,,,,,,,,TRUE,,,,,,
select_solution7,,,,,,,,,,,,,,,,,,,,,,,,,,,,,,,,,,TRUE,,,,,,
select_solution8,,,,,,,,,,,,,,,,,,,,,,,,,,,,,,,,,,TRUE,,,,,,
select_solution9,,,,,,,,,,,,,,,,,,,,,,,,,,,,,,,,,,TRUE,,,,,,
select_solution10,,,,,,,,,,,,,,,,,,,,,,,,,,,,,,,,,,TRUE,,,,,,
select_solution11,,,,,,,,,,,,,,,,,,,,,,,,,,,,,,,,,,TRUE,,,,,,
select_solution12,,,,,,,,,,,,,,,,,,,,,,,,,,,,,,,,,,TRUE,,,,,,
select_solution13,,,,,,,,,,,,,,,,,,,,,,,,,,,,,,,,,,TRUE,,,,,,
select_solution14,,,,,,,,,,,,,,,,,,,,,,,,,,,,,,,,,,TRUE,,,,,,
select_solution15,,,,,,,,,,,,,,,,,,,,,,,,,,,,,,,,,,TRUE,,,,,,
select_solution16,,,,,,,,,,,,,,,,,,,,,,,,,,,,,,,,,,TRUE,,,,,,
select_solution17,,,,,,,,,,,,,,,,,,,,,,,,,,,,,,,,,,TRUE,,,,,,
select_solution18,,,,,,,,,,,,,,,,,,,,,,,,,,,,,,,,,,TRUE,,,,,,
select_solution19,,,,,,,,,,,,,,,,,,,,,,,,,,,,,,,,,,TRUE,,,,,,
select_solution20,,,,,,,,,,,,,,,,,,,,,,,,,,,,,,,,,,TRUE,,,,,,
select_solution21,,,,,,,,,,,,,,,,,,,,,,,,,,,,,,,,,,TRUE,,,,,,
select_solution22,,,,,,,,,,,,,,,,,,,,,,,,,,,,,,,,,,TRUE,,,,,,
select_solution23,,,,,,,,,,,,,,,,,,,,,,,,,,,,,,,,,,TRUE,,,,,,
select_solution24,,,,,,,,,,,,,,,,,,,,,,,,,,,,,,,,,,TRUE,,,,,,
select_solution25,,,,,,,,,,,,,,,,,,,,,,,,,,,,,,,,,,,TRUE,,,,,
select_solution26,,,,,,,,,,,,,,,,,,,,,,,,,,,,,,,,,,,TRUE,,,,,
select_solution27,,,,,,,,,,,,,,,,,,,,,,,,,,,,,,,,,,,TRUE,,,,,
select_solution28,,,,,,,,,,,,,,,,,,,,,,,,,,,,,,,,,,,TRUE,,,,,
select_jobfunction1,,,,,,,,,,,,,,,,,,,,,,,,,,,,,,,,,,,,TRUE,,,,
select_jobfunction2,,,,,,,,,,,,,,,,,,,,,,,,,,,,,,,,,,,,TRUE,,,,
select_jobfunction3,,,,,,,,,,,,,,,,,,,,,,,,,,,,,,,,,,,,TRUE,,,,
select_jobfunction4,,,,,,,,,,,,,,,,,,,,,,,,,,,,,,,,,,,,TRUE,,,,
select_jobfunction5,,,,,,,,,,,,,,,,,,,,,,,,,,,,,,,,,,,,TRUE,,,,
select_jobfunction6,,,,,,,,,,,,,,,,,,,,,,,,,,,,,,,,,,,,TRUE,,,,
select_jobfunction7,,,,,,,,,,,,,,,,,,,,,,,,,,,,,,,,,,,,TRUE,,,,
select_interest1,,,,,,,,,,,,,,,,,,,,,,,,,,,,,,,,,,,,,TRUE,,,
select_interest2,,,,,,,,,,,,,,,,,,,,,,,,,,,,,,,,,,,,,TRUE,,,
select_interest3,,,,,,,,,,,,,,,,,,,,,,,,,,,,,,,,,,,,,TRUE,,,
select_interest2_1,,,,,,,,,,,,,,,,,,,,,,,,,,,,,,,,,,,,,,TRUE,,
select_interest2_2,,,,,,,,,,,,,,,,,,,,,,,,,,,,,,,,,,,,,,TRUE,,
select_interest2_3,,,,,,,,,,,,,,,,,,,,,,,,,,,,,,,,,,,,,,TRUE,,
select_interest2_4,,,,,,,,,,,,,,,,,,,,,,,,,,,,,,,,,,,,,,TRUE,,
select_interest2_5,,,,,,,,,,,,,,,,,,,,,,,,,,,,,,,,,,,,,,TRUE,,
select_interest2_6,,,,,,,,,,,,,,,,,,,,,,,,,,,,,,,,,,,,,,TRUE,,
select_interest3_1,,,,,,,,,,,,,,,,,,,,,,,,,,,,,,,,,,,,,,,TRUE,
select_interest3_2,,,,,,,,,,,,,,,,,,,,,,,,,,,,,,,,,,,,,,,TRUE,
select_interest3_3,,,,,,,,,,,,,,,,,,,,,,,,,,,,,,,,,,,,,,,TRUE,
select_interest3_4,,,,,,,,,,,,,,,,,,,,,,,,,,,,,,,,,,,,,,,TRUE,
select_interest3_5,,,,,,,,,,,,,,,,,,,,,,,,,,,,,,,,,,,,,,,TRUE,
select_interest3_6,,,,,,,,,,,,,,,,,,,,,,,,,,,,,,,,,,,,,,,TRUE,
select_interest3_7,,,,,,,,,,,,,,,,,,,,,,,,,,,,,,,,,,,,,,,TRUE,
select_interest3_8,,,,,,,,,,,,,,,,,,,,,,,,,,,,,,,,,,,,,,,TRUE,
select_interest3_9,,,,,,,,,,,,,,,,,,,,,,,,,,,,,,,,,,,,,,,TRUE,
select_accuracy_needs_1,,,,,,,,,,,,,,,,,,,,,,,,,,,TRUE,,,,,,,,,,,,,
select_accuracy_needs_2,,,,,,,,,,,,,,,,,,,,,,,,,,,TRUE,,,,,,,,,,,,,
select_accuracy_needs_3,,,,,,,,,,,,,,,,,,,,,,,,,,,TRUE,,,,,,,,,,,,,
select_accuracy_needs_4,,,,,,,,,,,,,,,,,,,,,,,,,,,TRUE,,,,,,,,,,,,,
select_gnss_receiver_1,,,,,,,,,,,,,,,,,,,,,,,,,,,,TRUE,,,,,,,,,,,,
select_gnss_receiver_2,,,,,,,,,,,,,,,,,,,,,,,,,,,,TRUE,,,,,,,,,,,,
select_gnss_receiver_3,,,,,,,,,,,,,,,,,,,,,,,,,,,,TRUE,,,,,,,,,,,,
select_interest4_1,,,,,,,,,,,,,,,,,,,,,,,,,,,,,,,,,,,,,,,,TRUE
select_interest4_2,,,,,,,,,,,,,,,,,,,,,,,,,,,,,,,,,,,,,,,,TRUE
select_interest4_3,,,,,,,,,,,,,,,,,,,,,,,,,,,,,,,,,,,,,,,,TRUE
select_interest4_4,,,,,,,,,,,,,,,,,,,,,,,,,,,,,,,,,,,,,,,,TRUE
select_interest4_5,,,,,,,,,,,,,,,,,,,,,,,,,,,,,,,,,,,,,,,,TRUE
select_interest4_6,,,,,,,,,,,,,,,,,,,,,,,,,,,,,,,,,,,,,,,,TRUE
